{
	"info": {
		"_postman_id": "45ae0741-9f6b-42be-88e4-ea30608294f6",
		"name": "booking-system-api",
		"schema": "https://schema.getpostman.com/json/collection/v2.1.0/collection.json",
		"_exporter_id": "20772219"
	},
	"item": [
		{
			"name": "Register User",
			"request": {
				"method": "POST",
				"header": [],
				"body": {
					"mode": "raw",
					"raw": "{\r\n    \"firstName\" : \"Lalisa\",\r\n    \"lastName\" : \"Manoban\",\r\n    \"email\" : \"callMeLisa@gmail.com\",\r\n    \"mobileNo\" : \"03123456789\",\r\n    \"password\" : \"user123\"\r\n}",
					"options": {
						"raw": {
							"language": "json"
						}
					}
				},
				"url": {
					"raw": "localhost:4000/users",
					"host": [
						"localhost"
					],
					"port": "4000",
					"path": [
						"users"
					]
				}
			},
			"response": []
		},
		{
			"name": "Login User",
			"request": {
				"method": "POST",
				"header": [],
				"body": {
					"mode": "raw",
					"raw": "{\r\n    \"email\" : \"callMeLisa@gmail.com\",\r\n    \"password\" : \"user123\"\r\n}",
					"options": {
						"raw": {
							"language": "json"
						}
					}
				},
				"url": {
					"raw": "localhost:4000/users/login",
					"host": [
						"localhost"
					],
					"port": "4000",
					"path": [
						"users",
						"login"
					]
				}
			},
			"response": []
		},
		{
			"name": "Get all Users",
			"request": {
				"method": "GET",
				"header": [],
				"url": {
					"raw": "localhost:4000/users",
					"host": [
						"localhost"
					],
					"port": "4000",
					"path": [
						"users"
					]
				}
			},
			"response": []
		},
		{
			"name": "Get User Details",
			"request": {
				"auth": {
					"type": "bearer",
					"bearer": [
						{
							"key": "token",
							"value": "eyJhbGciOiJIUzI1NiIsInR5cCI6IkpXVCJ9.eyJpZCI6IjYyOTZmZWI4ZmQ2ZTA4MjI5MGE2OGQxNSIsImVtYWlsIjoiY2FsbE1lTGlzYUBnbWFpbC5jb20iLCJpc0FkbWluIjp0cnVlLCJpYXQiOjE2NTQxMzk1MjR9.ZhpX72pN2MXTzI7vv09vPV0Ss_m0OyGYks16LHIVlv0",
							"type": "string"
						}
					]
				},
				"method": "GET",
				"header": [],
				"url": {
					"raw": "localhost:4000/users/getUserDetails",
					"host": [
						"localhost"
					],
					"port": "4000",
					"path": [
						"users",
						"getUserDetails"
					]
				}
			},
			"response": []
		},
		{
			"name": "Update a User Details",
			"request": {
				"auth": {
					"type": "bearer",
					"bearer": [
						{
							"key": "token",
							"value": "eyJhbGciOiJIUzI1NiIsInR5cCI6IkpXVCJ9.eyJpZCI6IjYyOTZmZWEwM2MwY2U3MzIxNWFiM2E1OCIsImVtYWlsIjoidG9wbGFuZTEyM0BnbWFpbC5jb20iLCJpc0FkbWluIjp0cnVlLCJpYXQiOjE2NTQxNTQzOTh9.Ba3ExknHqJ7eWJYyw1zRbTwpk3KwEezB7vSi1FPbcOk",
							"type": "string"
						}
					]
				},
				"method": "PUT",
				"header": [],
				"body": {
					"mode": "raw",
					"raw": "{\r\n\r\n    \"firstName\" : \"Hannah\",\r\n    \"lastName\" : \"Kim\",\r\n    \"mobileNo\" : \"09365645186\"\r\n}",
					"options": {
						"raw": {
							"language": "json"
						}
					}
				},
				"url": {
					"raw": "localhost:4000/users/updateUserDetails",
					"host": [
						"localhost"
					],
					"port": "4000",
					"path": [
						"users",
						"updateUserDetails"
					]
				}
			},
			"response": []
		},
		{
			"name": "Add Course",
			"request": {
				"method": "POST",
				"header": [],
				"body": {
					"mode": "raw",
					"raw": "{\r\n    \"name\" : \"HTML5\",\r\n    \"description\" : \"You can learn HTML5 from this course\",\r\n    \"price\" : 2000\r\n}",
					"options": {
						"raw": {
							"language": "json"
						}
					}
				},
				"url": {
					"raw": "localhost:4000/courses",
					"host": [
						"localhost"
					],
					"port": "4000",
					"path": [
						"courses"
					]
				}
			},
			"response": []
		},
		{
			"name": "Get All Course",
			"request": {
				"method": "GET",
				"header": []
			},
			"response": []
		},
		{
			"name": "Get Single Course",
			"request": {
				"method": "GET",
				"header": [],
				"url": {
					"raw": "localhost:4000/courses/getSingleCourse/",
					"host": [
						"localhost"
					],
					"port": "4000",
					"path": [
						"courses",
						"getSingleCourse",
						""
					]
				}
			},
			"response": []
		},
		{
			"name": "Update Course",
			"request": {
				"auth": {
					"type": "bearer",
					"bearer": [
						{
							"key": "token",
							"value": "eyJhbGciOiJIUzI1NiIsInR5cCI6IkpXVCJ9.eyJpZCI6IjYyOTcwMTkwM2MwY2U3MzIxNWFiM2E1YSIsImVtYWlsIjoicXdlcnR5MTJAZ21haWwuY29tIiwiaXNBZG1pbiI6dHJ1ZSwiaWF0IjoxNjU0MTU1Nzg1fQ.2m7a7BSphWv7PNVeqHUpHGBalTBd-zH4v2PSmghdoIA",
							"type": "string"
						}
					]
				},
				"method": "PUT",
				"header": [],
				"body": {
					"mode": "raw",
					"raw": "{\r\n    \"name\" : \"Mang inasal course\",\r\n    \"description\" : \"A course on how to eat\",\r\n    \"price\" : 200\r\n}",
					"options": {
						"raw": {
							"language": "json"
						}
					}
				},
				"url": {
					"raw": "localhost:4000/courses/62982bb24d60f73191aa3b92",
					"host": [
						"localhost"
					],
					"port": "4000",
					"path": [
						"courses",
						"62982bb24d60f73191aa3b92"
					]
				}
			},
			"response": []
		},
		{
			"name": "Check If Email Exist",
			"request": {
				"method": "POST",
				"header": [],
				"body": {
					"mode": "raw",
					"raw": "{\r\n    \"email\" : \"toplane124@gmail.com\"\r\n}",
					"options": {
						"raw": {
							"language": "json"
						}
					}
				},
				"url": {
					"raw": "localhost:4000/users/checkEmail",
					"host": [
						"localhost"
					],
					"port": "4000",
					"path": [
						"users",
						"checkEmail"
					]
				}
			},
			"response": []
		},
		{
			"name": "Update Admin",
			"request": {
				"auth": {
					"type": "bearer",
					"bearer": [
						{
							"key": "token",
							"value": "eyJhbGciOiJIUzI1NiIsInR5cCI6IkpXVCJ9.eyJpZCI6IjYyOTcwMTkwM2MwY2U3MzIxNWFiM2E1YSIsImVtYWlsIjoicXdlcnR5MTJAZ21haWwuY29tIiwiaXNBZG1pbiI6dHJ1ZSwiaWF0IjoxNjU0MTU1Nzg1fQ.2m7a7BSphWv7PNVeqHUpHGBalTBd-zH4v2PSmghdoIA",
							"type": "string"
						}
					]
				},
				"method": "PUT",
				"header": [],
				"url": {
					"raw": "localhost:4000/users/updateUserAdmin/6298576ae64ff4e661867785",
					"host": [
						"localhost"
					],
					"port": "4000",
					"path": [
						"users",
						"updateUserAdmin",
						"6298576ae64ff4e661867785"
					]
				}
			},
			"response": []
		},
		{
			"name": "Archive Course",
			"request": {
				"method": "PUT",
				"header": [],
				"url": {
					"raw": "localhost:4000/courses/archive/62982a0f57a1fbf3a35f30df",
					"host": [
						"localhost"
					],
					"port": "4000",
					"path": [
						"courses",
						"archive",
						"62982a0f57a1fbf3a35f30df"
					]
				}
			},
			"response": []
		},
		{
			"name": "Activate Course",
			"request": {
				"method": "GET",
				"header": []
			},
			"response": []
		},
		{
			"name": "Retreive All Active Courses",
			"request": {
				"method": "GET",
				"header": []
			},
			"response": []
		}
	]
}